%YAML 1.1
%TAG !u! tag:unity3d.com,2011:
--- !u!114 &11400000
MonoBehaviour:
  m_ObjectHideFlags: 0
  m_PrefabParentObject: {fileID: 0}
  m_PrefabInternal: {fileID: 0}
  m_GameObject: {fileID: 0}
  m_Enabled: 1
  m_EditorHideFlags: 0
  m_Script: {fileID: 11500000, guid: 9f3758f8f58fdef43803eb9be1df0608, type: 3}
  m_Name: PhotonServerSettings
  m_EditorClassIdentifier: 
  AppID: 932a0d17-dee3-4e66-80cd-ba2eeefd3bea
  VoiceAppID: 
  ChatAppID: 
  HostType: 1
  PreferredRegion: 2
  EnabledRegions: -1
  Protocol: 1
  ServerAddress: 
  ServerPort: 4530
  VoiceServerPort: 5055
  JoinLobby: 1
  EnableLobbyStatistics: 0
  PunLogging: 0
  NetworkLogging: 1
  RunInBackground: 1
  RpcList:
  - Chat
  - ColorRpc
  - DestroyRpc
  - DoJump
  - Flash
  - InstantiateRpc
  - Marco
  - PickupItemInit
  - Polo
  - PunPickup
  - PunPickupSimple
  - PunRespawn
  - RequestForPickupItems
  - RequestForPickupTimes
  - TaggedPlayer
  - Leave_Room_RPC
  - TurnTimeLeft_RPC
  - ShowEmoticon
  DisableAutoOpenWizard: 1
