%YAML 1.1
%TAG !u! tag:unity3d.com,2011:
--- !u!78 &1
TagManager:
  serializedVersion: 2
  tags: []
  layers:
  - Default
  - TransparentFX
  - Ignore Raycast
  - 
  - Water
  - UI
  - 
  - 
  - Background
  - Tree
  - 
  - 
  - 
  - 
  - 
  - 
  - 
  - 
  - 
  - 
  - 
  - 
  - 
  - 
  - 
  - 
  - 
  - 
  - 
  - 
  - 
  - 
  m_SortingLayers:
  - name: Background
    uniqueID: 1083875689
    locked: 0
  - name: Default
    uniqueID: 0
    locked: 0
  - name: UILayer
    uniqueID: 1970610637
    locked: 0
  - name: WindowLayer
    uniqueID: 2693482119
    locked: 0
  - name: LoadingLayer
    uniqueID: 3709650225
    locked: 0
